// Jest Snapshot v1, https://goo.gl/fbAQLP

exports[`FeedBasket should match complete mount snapshot 1`] = `
<div class="v-snack basket v-snack--active v-snack--bottom v-snack--has-background" style="padding-bottom: 0px; padding-top: 0px;">
  <transition-stub name="v-snack-transition">
    <div class="v-snack__wrapper v-sheet theme--dark">
      <div role="status" aria-live="polite" class="v-snack__content"><span class="basket-items-number rounded-pill pink darken-1 px-2 py-1 white--text font-weight-bold">2</span>&nbsp;flux

      </div>
      <div class="v-snack__action "><button type="button" class="basket-action v-btn v-btn--text theme--dark v-size--default pink--text text--accent-1 v-snack__btn"><span class="v-btn__content">
      2 components.feed_explorer.basket_snackbar
    </span></button></div>
    </div>
  </transition-stub>
</div>
`;

exports[`FeedBasket should match shallow snapshot 1`] = `
<v-snackbar-stub tag="div" value="true" contentclass="" timeout="-1" transition="v-snack-transition" class="basket"><span class="basket-items-number rounded-pill pink darken-1 px-2 py-1 white--text font-weight-bold">2</span>&nbsp;flux

</v-snackbar-stub>
`;
