// Jest Snapshot v1, https://goo.gl/fbAQLP

exports[`should show saved articles at the top of the list 1`] = `
<div>
  <!---->
  <v-container-stub tag="div" style="max-width: 1100px;">
    <v-row-stub tag="div">
      <v-col-stub cols="12" tag="div">
        <fb-feed-card-stub name="constants.offline_articles" large="true" to="[object Object]"></fb-feed-card-stub>
      </v-col-stub>
    </v-row-stub>
    <!---->
    <!---->
    <v-row-stub tag="div" justify="center">
      <v-col-stub cols="6" tag="div" class="mt-2">
        <v-tooltip-stub opendelay="0" closedelay="0" bottom="true" fixed="true" contentclass="" maxwidth="auto" nudgebottom="0" nudgeleft="0" nudgeright="0" nudgetop="0" nudgewidth="0" tag="span"> <span>pages.list_feeds.onboarding_action</span></v-tooltip-stub>
      </v-col-stub>
    </v-row-stub>
  </v-container-stub>
  <fb-news-dialog-stub></fb-news-dialog-stub>
</div>
`;
