// Jest Snapshot v1, https://goo.gl/fbAQLP

exports[`with parsable article 1`] = `
<div class="container px-0">
  <header class="pb-4">
    <h2 syle="line-height: 1.2" class="mx-4 mt-2 mb-0">
      Article content
    </h2>
    <div class="d-flex flex-row justify-start ml-4 mt-2" style="position: relative; overflow: hidden;"><span style="position: absolute; top: 0px; bottom: 0px; right: 0px; width: 100px;"></span> <a rel="noreferrer noopener" referrerpolicy="no-referrer" target="_blank" href="https://awesome-website.com/article/something-awesome" class="feed-article-url text-no-wrap text-decoration-none font-weight-bold text-caption" style="color: rgb(255, 167, 38);"><span aria-hidden="true" class="v-icon notranslate mr-1 theme--light" style="font-size: 16px; height: 16px; width: 16px; color: rgb(255, 167, 38); caret-color: #ffa726; opacity: 0.9;"><svg xmlns="http://www.w3.org/2000/svg" viewBox="0 0 24 24" role="img" aria-hidden="true" class="v-icon__svg" style="font-size: 16px; height: 16px; width: 16px;"><path d="M14,3V5H17.59L7.76,14.83L9.17,16.24L19,6.41V10H21V3M19,19H5V5H12V3H5C3.89,3 3,3.9 3,5V19A2,2 0 0,0 5,21H19A2,2 0 0,0 21,19V12H19V19Z"></path></svg></span>
        https://awesome-website.com/article/something-awesome
      </a></div>
  </header>
  <div class="px-3 v-sheet theme--dark" flat="">
    <div class="article-container" style="line-height: 1.5; text-align: justify; font-size: 16px; font-family: var(--font-family--sans); font-weight: 500; width: 770px;">
      <article class="px-5 pb-6 pt-5">
        <h2>Article content</h2>
        <section>
          <p>Here is some content</p>
        </section>
      </article>
    </div>
  </div>
  <div class="mt-6 mb-12">
    <hr role="separator" aria-orientation="horizontal" class="v-divider theme--light">
    <div class="mt-6 d-flex flex-column justify-center">
      <div class="mb-4 d-flex align-center justify-sm-center justify-space-around">
        <p class="mb-0 mr-4 text-caption">
          components.feed_article.like_buttons.title
        </p>
        <div class="d-flex align-center"><button type="button" class="mr-4 v-btn v-btn--icon v-btn--round theme--light v-size--default"><span class="v-btn__content"><span aria-hidden="true" class="v-icon notranslate like theme--light"><svg xmlns="http://www.w3.org/2000/svg" viewBox="0 0 24 24" role="img" aria-hidden="true" class="v-icon__svg"><path d="M5,9V21H1V9H5M9,21A2,2 0 0,1 7,19V9C7,8.45 7.22,7.95 7.59,7.59L14.17,1L15.23,2.06C15.5,2.33 15.67,2.7 15.67,3.11L15.64,3.43L14.69,8H21C22.11,8 23,8.9 23,10V12C23,12.26 22.95,12.5 22.86,12.73L19.84,19.78C19.54,20.5 18.83,21 18,21H9M9,19H18.03L21,12V10H12.21L13.34,4.68L9,9.03V19Z"></path></svg></span></span></button> <button type="button" class="v-btn v-btn--icon v-btn--round theme--light v-size--default" style="max-width: 240px;"><span class="v-btn__content"><span aria-hidden="true" class="v-icon notranslate dislike theme--light"><svg xmlns="http://www.w3.org/2000/svg" viewBox="0 0 24 24" role="img" aria-hidden="true" class="v-icon__svg"><path d="M19,15V3H23V15H19M15,3A2,2 0 0,1 17,5V15C17,15.55 16.78,16.05 16.41,16.41L9.83,23L8.77,21.94C8.5,21.67 8.33,21.3 8.33,20.88L8.36,20.57L9.31,16H3C1.89,16 1,15.1 1,14V12C1,11.74 1.05,11.5 1.14,11.27L4.16,4.22C4.46,3.5 5.17,3 6,3H15M15,5H5.97L3,12V14H11.78L10.65,19.32L15,14.97V5Z"></path></svg></span></span></button></div>
      </div>
      <div class="col-md-6 offset-md-3 col">
        <p class="text-caption ml-5">
          components.feed_article.like_buttons.share
        </p>
        <div class="v-input text-caption mb-4 v-input--is-label-active v-input--is-dirty v-input--is-readonly v-input--dense theme--light v-text-field v-text-field--single-line v-text-field--solo v-text-field--solo-flat v-text-field--enclosed">
          <div class="v-input__control">
            <div class="v-input__slot">
              <div class="v-text-field__slot"><input id="fullLink" readonly="readonly" type="text"></div>
            </div>
            <div class="v-text-field__details">
              <div class="v-messages theme--light">
                <transition-group-stub tag="div" name="message-transition" class="v-messages__wrapper"></transition-group-stub>
              </div>
            </div>
          </div>
          <div class="v-input__append-outer">
            <div class="v-input__icon v-input__icon--append-outer"><button type="button" aria-label="append icon" class="v-icon notranslate v-icon--link theme--light"><svg xmlns="http://www.w3.org/2000/svg" viewBox="0 0 24 24" role="img" aria-hidden="true" class="v-icon__svg">
                  <path d="M19,3A2,2 0 0,1 21,5V19A2,2 0 0,1 19,21H5A2,2 0 0,1 3,19V5A2,2 0 0,1 5,3H9.18C9.6,1.84 10.7,1 12,1C13.3,1 14.4,1.84 14.82,3H19M12,3A1,1 0 0,0 11,4A1,1 0 0,0 12,5A1,1 0 0,0 13,4A1,1 0 0,0 12,3M7,7V5H5V19H19V5H17V7H7M16.91,13L11.91,18V15H7.91V11H11.91V8L16.91,13Z"></path>
                </svg></button></div>
          </div>
        </div>
      </div>
      <!---->
    </div>
    <div role="dialog" class="v-dialog__container d-flex justify-center" elevation="0">
      <!---->
    </div>
    <div class="v-snack v-snack--bottom v-snack--has-background" style="padding-bottom: 0px; padding-top: 0px;">
      <transition-stub name="v-snack-transition">
        <div class="v-snack__wrapper v-sheet theme--dark" style="display: none;">
          <div role="status" aria-live="polite" class="v-snack__content">
            components.feed_article.like_buttons.notification_success
          </div>
          <div class="v-snack__action "><button type="button" class="v-btn v-btn--icon v-btn--round theme--dark v-size--default v-snack__btn"><span class="v-btn__content"><span aria-hidden="true" class="v-icon notranslate theme--dark"><svg xmlns="http://www.w3.org/2000/svg" viewBox="0 0 24 24" role="img" aria-hidden="true" class="v-icon__svg"><path d="M19,6.41L17.59,5L12,10.59L6.41,5L5,6.41L10.59,12L5,17.59L6.41,19L12,13.41L17.59,19L19,17.59L13.41,12L19,6.41Z"></path></svg></span></span></button></div>
        </div>
      </transition-stub>
    </div>
  </div>
</div>
`;

exports[`with unparsable article 1`] = `
<div class="container px-0">
  <header class="pb-4">
    <h2 syle="line-height: 1.2" class="mx-4 mt-2 mb-0">
      Article content
    </h2>
    <div class="mt-5">
      <div role="alert" class="v-alert parsable-alert v-sheet v-sheet--outlined theme--light v-alert--outlined orange--text text--lighten-1">
        <div class="v-alert__wrapper"><i aria-hidden="true" class="v-icon notranslate v-alert__icon mdi mdi-exclamation theme--light orange--text text--lighten-1"></i>
          <div class="v-alert__content">
            <p class="text-justify">
              components.feed_article.parsable_alert.notification_failure
            </p>
            <div class="d-flex flex-row justify-start ml-4 mt-2" style="position: relative; overflow: hidden;"><span style="position: absolute; top: 0px; bottom: 0px; right: 0px; width: 100px;"></span> <a rel="noreferrer noopener" referrerpolicy="no-referrer" target="_blank" href="https://awesome-website.com/article/something-awesome" class="feed-article-url text-no-wrap text-decoration-none font-weight-bold text-caption" style="color: rgb(255, 167, 38);"><span aria-hidden="true" class="v-icon notranslate mr-1 theme--light" style="font-size: 16px; height: 16px; width: 16px; color: rgb(255, 167, 38); caret-color: #ffa726; opacity: 0.9;"><svg xmlns="http://www.w3.org/2000/svg" viewBox="0 0 24 24" role="img" aria-hidden="true" class="v-icon__svg" style="font-size: 16px; height: 16px; width: 16px;"><path d="M14,3V5H17.59L7.76,14.83L9.17,16.24L19,6.41V10H21V3M19,19H5V5H12V3H5C3.89,3 3,3.9 3,5V19A2,2 0 0,0 5,21H19A2,2 0 0,0 21,19V12H19V19Z"></path></svg></span>
                https://awesome-website.com/article/something-awesome
              </a></div>
          </div>
        </div>
      </div>
    </div>
  </header>
  <div class="px-3 v-sheet theme--dark" flat="">
    <div class="article-container" style="line-height: 1.5; text-align: justify; font-size: 16px; font-family: var(--font-family--sans); font-weight: 500; width: 770px;">
      <article class="px-5 pb-6 pt-5">
        <h2>Article content</h2>
        <section>
          <p>Here is some content</p>
        </section>
      </article>
    </div>
  </div>
  <div class="mt-6 mb-12">
    <hr role="separator" aria-orientation="horizontal" class="v-divider theme--light">
    <div class="mt-6 d-flex flex-column justify-center">
      <div class="mb-4 d-flex align-center justify-sm-center justify-space-around">
        <p class="mb-0 mr-4 text-caption">
          components.feed_article.like_buttons.title
        </p>
        <div class="d-flex align-center"><button type="button" class="mr-4 v-btn v-btn--icon v-btn--round theme--light v-size--default"><span class="v-btn__content"><span aria-hidden="true" class="v-icon notranslate like theme--light"><svg xmlns="http://www.w3.org/2000/svg" viewBox="0 0 24 24" role="img" aria-hidden="true" class="v-icon__svg"><path d="M5,9V21H1V9H5M9,21A2,2 0 0,1 7,19V9C7,8.45 7.22,7.95 7.59,7.59L14.17,1L15.23,2.06C15.5,2.33 15.67,2.7 15.67,3.11L15.64,3.43L14.69,8H21C22.11,8 23,8.9 23,10V12C23,12.26 22.95,12.5 22.86,12.73L19.84,19.78C19.54,20.5 18.83,21 18,21H9M9,19H18.03L21,12V10H12.21L13.34,4.68L9,9.03V19Z"></path></svg></span></span></button> <button type="button" class="v-btn v-btn--icon v-btn--round theme--light v-size--default" style="max-width: 240px;"><span class="v-btn__content"><span aria-hidden="true" class="v-icon notranslate dislike theme--light"><svg xmlns="http://www.w3.org/2000/svg" viewBox="0 0 24 24" role="img" aria-hidden="true" class="v-icon__svg"><path d="M19,15V3H23V15H19M15,3A2,2 0 0,1 17,5V15C17,15.55 16.78,16.05 16.41,16.41L9.83,23L8.77,21.94C8.5,21.67 8.33,21.3 8.33,20.88L8.36,20.57L9.31,16H3C1.89,16 1,15.1 1,14V12C1,11.74 1.05,11.5 1.14,11.27L4.16,4.22C4.46,3.5 5.17,3 6,3H15M15,5H5.97L3,12V14H11.78L10.65,19.32L15,14.97V5Z"></path></svg></span></span></button></div>
      </div>
      <div class="col-md-6 offset-md-3 col">
        <p class="text-caption ml-5">
          components.feed_article.like_buttons.share
        </p>
        <div class="v-input text-caption mb-4 v-input--is-label-active v-input--is-dirty v-input--is-readonly v-input--dense theme--light v-text-field v-text-field--single-line v-text-field--solo v-text-field--solo-flat v-text-field--enclosed">
          <div class="v-input__control">
            <div class="v-input__slot">
              <div class="v-text-field__slot"><input id="fullLink" readonly="readonly" type="text"></div>
            </div>
            <div class="v-text-field__details">
              <div class="v-messages theme--light">
                <transition-group-stub tag="div" name="message-transition" class="v-messages__wrapper"></transition-group-stub>
              </div>
            </div>
          </div>
          <div class="v-input__append-outer">
            <div class="v-input__icon v-input__icon--append-outer"><button type="button" aria-label="append icon" class="v-icon notranslate v-icon--link theme--light"><svg xmlns="http://www.w3.org/2000/svg" viewBox="0 0 24 24" role="img" aria-hidden="true" class="v-icon__svg">
                  <path d="M19,3A2,2 0 0,1 21,5V19A2,2 0 0,1 19,21H5A2,2 0 0,1 3,19V5A2,2 0 0,1 5,3H9.18C9.6,1.84 10.7,1 12,1C13.3,1 14.4,1.84 14.82,3H19M12,3A1,1 0 0,0 11,4A1,1 0 0,0 12,5A1,1 0 0,0 13,4A1,1 0 0,0 12,3M7,7V5H5V19H19V5H17V7H7M16.91,13L11.91,18V15H7.91V11H11.91V8L16.91,13Z"></path>
                </svg></button></div>
          </div>
        </div>
      </div>
      <!---->
    </div>
    <div role="dialog" class="v-dialog__container d-flex justify-center" elevation="0">
      <!---->
    </div>
    <div class="v-snack v-snack--bottom v-snack--has-background" style="padding-bottom: 0px; padding-top: 0px;">
      <transition-stub name="v-snack-transition">
        <div class="v-snack__wrapper v-sheet theme--dark" style="display: none;">
          <div role="status" aria-live="polite" class="v-snack__content">
            components.feed_article.like_buttons.notification_success
          </div>
          <div class="v-snack__action "><button type="button" class="v-btn v-btn--icon v-btn--round theme--dark v-size--default v-snack__btn"><span class="v-btn__content"><span aria-hidden="true" class="v-icon notranslate theme--dark"><svg xmlns="http://www.w3.org/2000/svg" viewBox="0 0 24 24" role="img" aria-hidden="true" class="v-icon__svg"><path d="M19,6.41L17.59,5L12,10.59L6.41,5L5,6.41L10.59,12L5,17.59L6.41,19L12,13.41L17.59,19L19,17.59L13.41,12L19,6.41Z"></path></svg></span></span></button></div>
        </div>
      </transition-stub>
    </div>
  </div>
</div>
`;
