// Jest Snapshot v1, https://goo.gl/fbAQLP

exports[`ListFeedItems with offline articles 1`] = `
<div>
  <!---->
  <div>
    <!---->
    <offline-feeditems-list-stub feeditems="[object Object]"></offline-feeditems-list-stub>
    <!---->
  </div>
</div>
`;

exports[`ListFeedItems with remote articles 1`] = `
<div>
  <!---->
  <div>
    <feed-settings-stub value="[object Object]"></feed-settings-stub>
    <feeditems-list-stub feeditems="[object Object]" class="mb-12"></feeditems-list-stub>
    <delete-feed-button-stub feed="[object Object]" class="mt-8 mb-12 pb-12"></delete-feed-button-stub>
  </div>
</div>
`;
